…
# 1 XPID    text        Participant ID                NA     [-9] Legitim…   0
# 2 XOBS    categorical Observation Wave              [0] I… [-9] Legitim…   0
# 3 XRA     categorical Random assignment             [0] C… [-9] Legitim…   0
# 4 B17     categorical Pregnant                      [0] N… [-9] Legitim…   0.221
# 5 SU4a    numeric     PPS - P90 days alcohol use    NA     [-9] Legitim…   0.394
# 6 SU4b    numeric     PPS - P90 days drunk or 5+ d… NA     [-9] Legitim…   0.442
# 7 SU1f99v text        QCS - P90 Days Other AOD Tx … NA     [-9] Legitim…   0.923
```
### Extract transformed data
Use `cb_get_data()` to extract transformed data based in several formats. `format 
= "factors"` yields a dataset with all variables with value labels converted to 
factors and user missings converted to `NA`.
```r
cb_get_data(cb, format = "factors")
# # A tibble: 104 × 7
#    XPID  XOBS    XRA       B17    SU4a  SU4b SU1f99v       
#    <chr> <fct>   <fct>     <fct> <dbl> <dbl> <chr>
#  1 001   Intake  Treatment No       NA    NA NA
#  2 002   Intake  Control   No       10     4 NA
#  3 003   Intake  Treatment No       10     1 Peer counselor
#  4 003   3-month Treatment No       39    15 NA
#  5 003   6-month Treatment No       NA    NA NA
#  6 004   Intake  Control   No       10     2 NA
#  7 004   3-month Control   No       55    63 NA
#  8 004   6-month Control   No       10     1 NA
#  9 005   Intake  Control   Yes      35     0 Social worker
# 10 005   3-month Control   Yes      55    39 NA
# # ℹ 94 more rows
```
Whereas `format = "haven"` yields a dataset with SPSS-style variable labels, value 
labels, and user missings encoded using the `"haven_labelled_spss"` class.
```r
cb_get_data(cb, format = "haven")
# # A tibble: 104 × 7
#    XPID      XOBS        XRA           B17       SU4a      SU4b      SU1f99v    
#    <chr+lbl> <dbl+lbl>   <dbl+lbl>     <dbl+lbl> <dbl+lbl> <dbl+lbl> <chr+lbl>
#  1 001       0 [Intake]  1 [Treatment] 0 [No]    -9 (NA)   -9 (NA)   -9 (NA)    
#  2 002       0 [Intake]  0 [Control]   0 [No]    10         4        -9 (NA)    
#  3 003       0 [Intake]  1 [Treatment] 0 [No]    10         1        Peer couns…
#  4 003       1 [3-month] 1 [Treatment] 0 [No]    39        15        -4 (NA)
#  5 003       2 [6-month] 1 [Treatment] 0 [No]    -4 (NA)   -4 (NA)   -4 (NA)
#  6 004       0 [Intake]  0 [Control]   0 [No]    10         2        -9 (NA)    
#  7 004       1 [3-month] 0 [Control]   0 [No]    55        63        -9 (NA)
#  8 004       2 [6-month] 0 [Control]   0 [No]    10         1        -9 (NA)
#  9 005       0 [Intake]  0 [Control]   1 [Yes]   35         0        Social wor…
# 10 005       1 [3-month] 0 [Control]   1 [Yes]   55        39        -9 (NA)
# # ℹ 94 more rows
```
…
